{
  "characters": [
    {
      "genderCharacteristics": "Gender:",
      "birthYearCharacteristics": "Birth year:",
      "eyeColourfirstCharacteristics": "Eye color:",
      "skinColourCharacteristics": "Skin color:"
    },
    {
      "notFoundMessage": "Not found."
    },
    {
      "browserTitle": "TntAssignment"
    }
  ]
}